\relax 
\citation{Ravindran-CVPR16}
\citation{Ravindran-CVPR16}
\citation{Matas-BMVC02}
\citation{Ravindran-CVPR16}
\citation{Zhu-CVPR16-EBT}
\citation{Zhu-CVPR16-EBT}
\citation{Zhang-CVPR16}
\citation{Zhang-CVPR16}
\citation{Zhang-CVPR16}
\citation{Boyd-BOOK04}
\citation{Boyd-FTML11}
\citation{Zhang-CVPR16}
\citation{Mei-ICCV09}
\citation{Mei-ICCV09}
\citation{Zhang-CVPR15}
\citation{Zhang-CVPR15}
\citation{Bao-CVPR12}
\citation{Mei-ICCV09}
\citation{Bao-CVPR12}
\citation{Dalal-CVPR05}
\citation{Dalal-CVPR05}
\citation{Dubuisson-MVA16}
\citation{Dubuisson-MVA16}
\citation{Bernardin-JIVP08}
\citation{Bernardin-JIVP08}
\citation{Porikli-CVPR06}
\citation{Porikli-CVPR06}
\citation{Porikli-ICIP06}
\citation{Porikli-ICIP06}
\citation{Li-CVPR08}
\citation{Li-CVPR08}
\citation{Porikli-CVPR06}
\citation{Li-CVPR08}
\citation{Wu-CVPR13}
\citation{Avidan-PAMI04}
\citation{Hare-ICCV11}
\citation{Comaniciu-PAMI03}
\citation{Zhang-ICCV17-FCNrLSTMVehicleDensity}
\citation{Sun-arXiv17-PCB}
\bibstyle{abbrvnat}
\bibdata{MyBib}
\bibcite{Avidan-PAMI04}{{1}{2004}{{Avidan}}{{}}}
\bibcite{Bao-CVPR12}{{2}{2012}{{Bao et~al.}}{{Bao, Wu, Ling, and Ji}}}
\bibcite{Bernardin-JIVP08}{{3}{2008}{{Bernardin and Stiefelhagen}}{{}}}
\bibcite{Boyd-BOOK04}{{4}{2004}{{Boyd and Vandenberghe}}{{}}}
\bibcite{Boyd-FTML11}{{5}{2011}{{Boyd et~al.}}{{Boyd, Parikh, Chu, Peleato, and Eckstein}}}
\bibcite{Comaniciu-PAMI03}{{6}{2003}{{Comaniciu et~al.}}{{Comaniciu, Ramesh, and Meer}}}
\bibcite{Dalal-CVPR05}{{7}{2005}{{Dalal and Triggs}}{{}}}
\bibcite{Dubuisson-MVA16}{{8}{2016}{{Dubuisson and Gonzales}}{{}}}
\bibcite{Li-CVPR08}{{9}{2008}{{Li et~al.}}{{Li, Hu, Zhang, Zhang, Zhu, and Cheng}}}
\bibcite{Matas-BMVC02}{{10}{2002}{{Matas et~al.}}{{Matas, Chum, Urban, and Pajdla}}}
\bibcite{Mei-ICCV09}{{11}{2009}{{Mei and Ling}}{{}}}
\bibcite{Porikli-ICIP06}{{12}{2006}{{Porikli and Tuzel}}{{}}}
\bibcite{Porikli-CVPR06}{{13}{2006}{{Porikli et~al.}}{{Porikli, Tuzel, and Meer}}}
\bibcite{Ravindran-CVPR16}{{14}{2016}{{Ravindran and Mittal}}{{}}}
\bibcite{Sun-arXiv17-PCB}{{15}{2017}{{Sun et~al.}}{{Sun, Zheng, Yang, Tian, and Wang}}}
\bibcite{Wu-CVPR13}{{16}{2013}{{Wu et~al.}}{{Wu, Lim, and Yang}}}
\bibcite{Zhang-ICCV17-FCNrLSTMVehicleDensity}{{17}{2017}{{Zhang et~al.}}{{Zhang, Wu, Costeira, and Moura}}}
\bibcite{Zhang-CVPR15}{{18}{2015}{{Zhang et~al.}}{{Zhang, Liu, Xu, Yan, Ghanem, Ahuja, and Yang}}}
\bibcite{Zhang-CVPR16}{{19}{2016}{{Zhang et~al.}}{{Zhang, Bibi, and Ghanem}}}
\bibcite{Zhu-CVPR16-EBT}{{20}{2016}{{Zhu et~al.}}{{Zhu, Porikli, and Li}}}
